1,9d0
< with Cindy 1
< playing with 1
< is playing 1
< her computer 1
< computer <END> 1
< cat is 1
< and her 1
< The cat 1
< Cindy and 1
10a2,10
> Cindy and 1
> The cat 1
> and her 1
> cat is 1
> computer <END> 1
> her computer 1
> is playing 1
> playing with 1
> with Cindy 1
